%YAML 1.1
%TAG !u! tag:unity3d.com,2011:
--- !u!114 &11400000
MonoBehaviour:
  m_ObjectHideFlags: 0
  m_CorrespondingSourceObject: {fileID: 0}
  m_PrefabInstance: {fileID: 0}
  m_PrefabAsset: {fileID: 0}
  m_GameObject: {fileID: 0}
  m_Enabled: 1
  m_EditorHideFlags: 0
  m_Script: {fileID: 11500000, guid: 154a73af3144ca347bf1eb9acac7cfe5, type: 3}
  m_Name: Chathedral_06
  m_EditorClassIdentifier: 
  state: 2
  levelSongs: {fileID: 8300000, guid: 316e1dc63f76ccc4faeee10f2ec9ce0d, type: 3}
  levelAmbient: {fileID: 8300000, guid: b415630d7b8824d47b1d9eba9c088779, type: 3}
  levelName: 
  comment: Boss Fight
  parallaxLevelBackground: {fileID: 0}
