%YAML 1.1
%TAG !u! tag:unity3d.com,2011:
--- !u!114 &11400000
MonoBehaviour:
  m_ObjectHideFlags: 0
  m_CorrespondingSourceObject: {fileID: 0}
  m_PrefabInstance: {fileID: 0}
  m_PrefabAsset: {fileID: 0}
  m_GameObject: {fileID: 0}
  m_Enabled: 1
  m_EditorHideFlags: 0
  m_Script: {fileID: 11500000, guid: 6104083c016aa1a48812055739d318ce, type: 3}
  m_Name: Air_Attack_3
  m_EditorClassIdentifier: 
  damage: -25
  nextAttacks: []
  layerMask:
    serializedVersion: 2
    m_Bits: 512
  animationClip: {fileID: 7400000, guid: 1a4f3fad813fbf04b9b0a16187d74260, type: 2}
  attackWindowPercantage: {x: 0, y: 1}
  attackHasMovment: 1
  attackMoveDistance: {x: 0, y: -60}
  movementDuration: 0.2
  movmentDelay: 0.3
  IsAirborn: 1
  enemyPushDistance: {x: 0, y: -60}
  pushDuration: 0.2
  targetIsAffectedByGravity: 1
  UpReq: 0
  DownReq: 1
  LeftReq: 0
  RightReq: 0
