%YAML 1.1
%TAG !u! tag:unity3d.com,2011:
--- !u!114 &11400000
MonoBehaviour:
  m_ObjectHideFlags: 0
  m_CorrespondingSourceObject: {fileID: 0}
  m_PrefabInstance: {fileID: 0}
  m_PrefabAsset: {fileID: 0}
  m_GameObject: {fileID: 0}
  m_Enabled: 1
  m_EditorHideFlags: 0
  m_Script: {fileID: 11500000, guid: 6104083c016aa1a48812055739d318ce, type: 3}
  m_Name: Air_Attack_1
  m_EditorClassIdentifier: 
  damage: -10
  nextAttacks:
  - {fileID: 11400000, guid: ab37c68cc29bbad49a94e81c49075cd2, type: 2}
  layerMask:
    serializedVersion: 2
    m_Bits: 512
  animationClip: {fileID: 7400000, guid: 1e3d4346e5fd7d242ab45497122a2eff, type: 2}
  attackWindowPercantage: {x: 0, y: 0}
  attackHasMovment: 0
  attackMoveDistance: {x: 0, y: 0}
  movementDuration: 0
  movmentDelay: 0
  IsAirborn: 1
  enemyPushDistance: {x: 0, y: 0.2}
  pushDuration: 0.3
  targetIsAffectedByGravity: 0
  UpReq: 0
  DownReq: 0
  LeftReq: 0
  RightReq: 0
