%YAML 1.1
%TAG !u! tag:unity3d.com,2011:
--- !u!21 &2100000
Material:
  serializedVersion: 6
  m_ObjectHideFlags: 0
  m_CorrespondingSourceObject: {fileID: 0}
  m_PrefabInstance: {fileID: 0}
  m_PrefabAsset: {fileID: 0}
  m_Name: EnemyMaterial
  m_Shader: {fileID: -6465566751694194690, guid: 0ad860664e797704982325c2d1d8d479,
    type: 3}
  m_ShaderKeywords: ETC1_EXTERNAL_ALPHA
  m_LightmapFlags: 4
  m_EnableInstancingVariants: 0
  m_DoubleSidedGI: 0
  m_CustomRenderQueue: -1
  stringTagMap: {}
  disabledShaderPasses: []
  m_SavedProperties:
    serializedVersion: 3
    m_TexEnvs:
    - MainTexture:
        m_Texture: {fileID: 2800000, guid: 33febe8f8f15f8a40b47a506adea473c, type: 3}
        m_Scale: {x: 1, y: 1}
        m_Offset: {x: 0, y: 0}
    - _AlphaTex:
        m_Texture: {fileID: 0}
        m_Scale: {x: 1, y: 1}
        m_Offset: {x: 0, y: 0}
    - _BaseTexture:
        m_Texture: {fileID: 2800000, guid: 527ccf54b93fbe941b9a64b867baf385, type: 3}
        m_Scale: {x: 1, y: 1}
        m_Offset: {x: 0, y: 0}
    - _BigSizeTexture:
        m_Texture: {fileID: 2800000, guid: 33febe8f8f15f8a40b47a506adea473c, type: 3}
        m_Scale: {x: 1, y: 1}
        m_Offset: {x: 0, y: 0}
    - _EnemyDissolveEffect_86F0B9A5_Texture2DD16A49B_702150636:
        m_Texture: {fileID: 0}
        m_Scale: {x: 1, y: 1}
        m_Offset: {x: 0, y: 0}
    - _MainTex:
        m_Texture: {fileID: 2800000, guid: e2d3ba8af5cde3242bb6c3b1f920265d, type: 3}
        m_Scale: {x: 1, y: 1}
        m_Offset: {x: 0, y: 0}
    - _MainTexture:
        m_Texture: {fileID: 2800000, guid: 33febe8f8f15f8a40b47a506adea473c, type: 3}
        m_Scale: {x: 1, y: 1}
        m_Offset: {x: 0, y: 0}
    - _MaskTex:
        m_Texture: {fileID: 0}
        m_Scale: {x: 1, y: 1}
        m_Offset: {x: 0, y: 0}
    - _NormalMap:
        m_Texture: {fileID: 0}
        m_Scale: {x: 1, y: 1}
        m_Offset: {x: 0, y: 0}
    - _SampleTexture2D_21F2AC84_Texture_1:
        m_Texture: {fileID: 2800000, guid: 33febe8f8f15f8a40b47a506adea473c, type: 3}
        m_Scale: {x: 1, y: 1}
        m_Offset: {x: 0, y: 0}
    - _Texture2DAsset_E2B1330B_Out_0:
        m_Texture: {fileID: 2800000, guid: 33febe8f8f15f8a40b47a506adea473c, type: 3}
        m_Scale: {x: 1, y: 1}
        m_Offset: {x: 0, y: 0}
    m_Floats:
    - _EnableExternalAlpha: 0
    - _Fade: 1
    - _OutlineThickness: 0
    - _Visibilty: 1
    m_Colors:
    - Color_5A498222: {r: 1, g: 0.8564792, b: 0, a: 0}
    - _Color: {r: 1, g: 1, b: 1, a: 1}
    - _FadeColor: {r: 0.9716981, g: 0.5536431, b: 0, a: 0}
    - _Flip: {r: 1, g: 1, b: 1, a: 1}
    - _OutlineColor: {r: 1, g: 0.33676553, b: 0.3160377, a: 0}
    - _RendererColor: {r: 1, g: 1, b: 1, a: 1}
