%YAML 1.1
%TAG !u! tag:unity3d.com,2011:
--- !u!114 &11400000
MonoBehaviour:
  m_ObjectHideFlags: 0
  m_CorrespondingSourceObject: {fileID: 0}
  m_PrefabInstance: {fileID: 0}
  m_PrefabAsset: {fileID: 0}
  m_GameObject: {fileID: 0}
  m_Enabled: 1
  m_EditorHideFlags: 0
  m_Script: {fileID: 11500000, guid: c2ebb8c11436961439ad6b7733c34108, type: 3}
  m_Name: PiercingBullet
  m_EditorClassIdentifier: 
  layerMaskHit:
    serializedVersion: 2
    m_Bits: 1536
  layerMaskDamages:
    serializedVersion: 2
    m_Bits: 512
  pierces: 1
  targetsToPierce: 2
  piercingRange: 10
  damage: -20
  maxNumber: 20
  startingNumber: 5
  bulletSplash: {fileID: 633660900560178242, guid: 82ccdce8e9877a945bd1d48f5325a697,
    type: 3}
  bulletSprite: {fileID: -7976837497307082302, guid: edcc815d24347744d9916470a0f7f91a,
    type: 3}
  bulletSound: {fileID: 8300000, guid: 3688106387c9d914b99f20687a314aba, type: 3}
