%YAML 1.1
%TAG !u! tag:unity3d.com,2011:
--- !u!1045 &1
EditorBuildSettings:
  m_ObjectHideFlags: 0
  serializedVersion: 2
  m_Scenes:
  - enabled: 1
    path: Assets/_Scenes/GameScenes/MainMenu.unity
    guid: c462de9fe1d42b84cb82671f0883d05f
  - enabled: 1
    path: Assets/_Scenes/GameScenes/Chathedral_01.unity
    guid: 4f121268cac5b944ea6ea872a4a17ada
  - enabled: 1
    path: Assets/_Scenes/GameScenes/Chathedral_02.unity
    guid: dad89ee57472e1447ba36cd7017c94f6
  - enabled: 1
    path: Assets/_Scenes/GameScenes/Chathedral_03.unity
    guid: 5c3e7e906871c784584fc49ddd3cb98a
  - enabled: 1
    path: Assets/_Scenes/GameScenes/Chathedral_04.unity
    guid: 181888e6e5eb69c44b5b7f655b4b9dd5
  - enabled: 1
    path: Assets/_Scenes/GameScenes/Chathedral_05.unity
    guid: cb9485750c99b944597d47f51f4c7864
  - enabled: 1
    path: Assets/_Scenes/GameScenes/Chathedral_06.unity
    guid: 11abb9ed70e577540b882225a68eee54
  m_configObjects:
    com.unity.input.settings: {fileID: 11400000, guid: 00fc7e3aeb09d1f4e80a17c89ea93983,
      type: 2}
